*** Life<Cell> 35x34 ***

Generation = 0, Population = 59.
----------------------------------
-0--------------------------------
-----------0---------------0------
-------------0-------------0------
-0------0-------------------------
-----0-------------0------0-------
-----------0----------0-----------
----------------------------------
---------------0----0-----0-----0-
----0----0----0--0----------------
------0---0--------------------0--
----------------------------------
---------------0-----0------------
------------------0---------------
----------------------------------
-----------------0----------------
-------------------------00-------
---------------0---0----0---------
----------------------------------
------0---------------------------
------------------0---------------
---------------0----------------0-
---0-----0-0--------0-------------
--------------0---0-0--------0----
------0----------0--0-------------
----------0-----------------------
----------------------------------
----------------------------------
--------------0---0----------0----
-----------------0-----0----------
----------0-----------------------
--0-------------------------------
---------------------------0------
-----0----------------------------
----------------------------0--0--

Generation = 1, Population = 208.
-0--------------------------------
0-0--------0---------------0------
-0--------0-00------------010-----
-0------0--00-0-----------010-----
0-0--0-0-0---0-----0------00------
-0--0-0-0--0------0-0-0--0-0------
-----0----0-0------0-0-0--0-------
-----------0---0----0-0---0-----0-
----0----0------00-0-0---0-0---0-0
---0-00-0----0--0-0-0-----0----00-
----00-0---0--0--0------------0-0-
------0---0----0-----0---------0--
--------------0-0-0-0-0-----------
---------------0-0-0-0------------
-----------------00---------------
----------------0-0------00-------
---------------0-0-0-----110------
--------------0-0-0-0--0--0-------
------0--------0---0----0---------
-----0-0----------0---------------
------0--------0-0-0------------0-
---0-----0-0--0-0-0-0----------0-0
--0-0---0---0-00--0010-------0--0-
---0--0--0-0-0-0-----0------0-0---
-----0-0--0---0-0--010-------0----
------0--0-0-----0--0-------------
----------0-----------------------
--------------0---0----------0----
-------------0-0---0---0----0-0---
----------0---0-0-----0-0----0----
--0------0-0-----0-----0----------
-0-0------0----------------0------
--0--0--------------------0-0-----
----0-0--------------------00--0--
-----0---------------------0-00-0-

Generation = 2, Population = 204.
-----------0---------------0------
---0---------0-------------1------
-1------00---1-----------0---0----
-1---0-----1---0---0-----01--0----
---0--0---0-----------0----1------
---0---0-----0---0---0--0--10-----
-0------00---0-0--------0-1-----0-
----00---0----0--0-0------1-------
------0---00-0---10-----0---0-01--
--0---10---00--01--0--------------
----1-------0-------00----0--0--10
----0----0----0--00---------------
------0---0--0---0-0---0-------0--
----------------01--0-------------
---------------0-----0---00-------
------------------1-----0---------
-----------------------00--10-----
------0------0---0---00---1-------
------------------0------00-------
----0---0----------0----0-------0-
---0-----0-0----0-----------------
------0------01--01-1--------00---
-0---000-0-0-0---0--*-0-----------
----------0-0--1--0-0-0----0---00-
---00---00-0---0--01*-0-----------
--------0---0-0---0-1--------0----
------0-------0--00-0--------0----
----------0------0-----0----------
----------0-0-------0------0---0--
--0------------0---0-0---0--------
--------0---0-0---0--------0-0----
0---00-----------0-----0----------
----------0--------------0--10-0--
--00---0--------------------------
--------------------------010110-0

Generation = 3, Population = 491.
---0------0-00------------010-----
-00-0---00-0010----------00*00----
0*00-0-011000*00---0----01-1010---
0*000---00--000-0-0-0-0-0-*-010---
-0010----0---0-0-0-0---000-*-0----
-0010----00-01000-0-0--010--10--0-
0-0000--1-0-010-0--0-0-01-*-0--0-0
-0-011---1-0-0--010-0----0*00-000-
--0-0-1---1-0--0--10---0-000--1*0-
-0-000-10-----01*----0--0-0-000000
--00*000-0--1000000-110--0-00-00*1
---0100-0---0--00-1-00-0--0--0-000
----00-0---00-----0---0-0-----0-0-
------0---0--0--1-0----0-00----0--
--------------0--00---0--110------
---------------0-0-0-0--1-000-----
------0------0---00--0-1-1-*10----
-----0-0----0-0-0---011-0-*-0-----
----0-0-0----0-------00--1-0----0-
-----0-0---0----0---0--0--0----0-0
--0---0-----0000--000---0----00-0-
-0-0--1-----0-*0--*-*00-----0110--
0-0-0111--0-01-00100*-10---0-0000-
-0-0000000----0*0-10---0--0-0-0110
--0110-0-10-0--1001-*-10---0-0-00-
---00-001-----1----0-00-----010---
-----0-00-0-00100---10-0----010---
------0--0100-0-01----0-0--0-0-0--
--0------01--0-0-0-----0-00-0-0-0-
-0-0----0-0-----0---0-0-0-0--0-0--
0-0-00-0-0-0---------0-0-00---0---
-0-0110-0-0-0-0-0-----0-00-00--0--
0-0000-0-0-0-----0-----00-00*1--0-
-0110-0-0-0--------------000--0--0
--00---0-----------------01----1--

Generation = 4, Population = 201.
-0------0--0---------------*------
-------------------0------1.------
-.-----1---1-.-1------00-------0--
-.-------1-------0-----0--.----0--
-1--10------0--1----0-----0*----0-
----1---------11-0----01------0---
------00--10---0--0-------.0---1--
-------------1------------.1------
-0------0--0---10--1-00-0---0-*.1-
0-------1-0-----.--0-1----1-------
--1-.-1---00--1-------1----1----.*
-----------------0----------------
-----------1---0-0-00-----------1-
----0----0-----0-1-0--0-0---------
------0---0--------------------0--
------0------0-------1------------
---------------0--1---0----.-10---
-----------0------001--0--.-1---0-
---0-----0-0--------0-------------
--0-------0---0--00-1--------0----
------1-------1--0--1-0--00-------
----------00--.1--.-.---0---1---0-
-----*-------*-11--1.0--0---------
------1---0---1.1-*-0-0-00-------1
--1-------1--00-1---*0--0----1----
------1-------*0-0-----0--------0-
---0-----010--------*-------------
--0-----------1---0-0--------1----
------0---*---0--10-0-0--1-0-----0
-----0----1--0-----0-0-----0------
------0-------0-------------0--0--
0-----1---------------------------
--------------0---0----1----.*----
-1---0---0-------0-----0----------
----------0-------------0-------00

Generation = 5, Population = 491.
0-0----0-00-0------0-------.0-----
-0-----00------0--0-0-00-0-.---0--
-.----0-110-0.0-00-0-01-0-0---010-
-.--00-00-010---0-0-0--10-.1--01--
0-01-10--0-0-0-*0--0-00--01.0-0--0
-0-1*-00--0001**----001*1-0--0--0-
----001110*101-10--0--00--.10---0-
-0----000-0-0-0-0-00-00-0-.*--000-
--0----010--000*111*--1--00---..-0
--0---11*-10--01.-01-*0-00--0-0-00
00-0.0-000-110-0-0-0---0----0---..
--0---0---0---0001100-0----0----00
----0----00-0-01----100-0------0-0
---0-00-0--0--01-*-1-0---0-----00-
----0010---0-0-0-0-0-00-0-----0-0-
-----010--0-0-00--1-0--------000--
------0----0-00-00*-0------.-*100-
---0-----0010--0-0---1--0-.0--00-0
----0---0-010-0--0---0-0----00--0-
-0----0------0100-1--00--00-0-0---
--0--0-0---0-0*-01-0*--0-11000--0-
-----01--01100.*-0.0*0001-00-1-0-0
----0.-----00.0--1--*--0----0---00
--0----0-010-0*.--.01---110--0--1-
-0-1-----1*00111*-11*1--1---0-0-00
--00-0-0-0-0--*10-0--00------1-0-0
----0-0-01-10--0-000.0-0-----1--0-
-0----0--0-0-0*0--1--00--0-00-0--0
--0----0-0.0--100*-010-00--100--0-
----0-0--0*00-0--0--0----001---0-0
0-----10--0----0---0-0-------00-0-
-0---1*0----------0----0----00-0--
00---00--0---0-0---0--0*0---..0---
0-1-0-0-0-----0-0-----01-----0--00
-0---0-----0-----0-------0-----111

*** Life<Cell> 33x34 ***

Generation = 0, Population = 57.
----------------------------------
----------------------------------
-------------0-------0-----0------
-----------------0---0-----------0
-0-----------------------0--------
-0------0-------------------------
------0-----------0-0-------------
----------------------------------
-------0--------0-----------------
------------------0---------------
--0--------0----------------------
---------------0----------0-------
----------0-----------------------
-------------------------0----0---
-------0-------------------0------
---------------------------0------
-------------0--------------------
---------------0----------------0-
------------------0---------------
----0-----------------------------
--00------------------------------
------------------0---------------
----0-----------------------------
-----------------------0---------0
------------0---------------------
--0--------------------0----------
--00----------0----------0---0----
-------------------------0--------
------0----------------------0----
-------------------------0--------
----------------------0------0----
---------------0-----0------------
------0-----------0-----------0--0

Generation = 1, Population = 199.
----------------------------------
-------------0-------0-----0------
------------0-0--0--010---0-0----0
-0-----------0--0-0-010--0-0----0-
010-----0--------0---0--0-0------0
010---00-0--------0-0----0--------
-0---0-00--------0---0------------
------00--------0-0-0-------------
------0-0------0-00---------------
--0----0---0----00-0--------------
-0-0------0-0--0--0-------0-------
--0-------00--0-0--------0-0------
---------0-0---0---------00---0---
-------0--0-------------0-00-0-0--
------0-0----------------0010-0---
-------0-----0------------010-----
------------0-00-----------0----0-
-------------00-0-0------------0-0
----0----------0-0-0------------0-
--0--0------------0---------------
-011--------------0---------------
--000------------0-0--------------
---0-0------------0----0---------0
----0-------0---------0-0-------0-
--0--------0-0-------------------0
-01---------0-0-------0-00---0----
-0-10--------0-0-------0010-0-0---
--00--0-------0---------010-------
-----0-0--------------------0-0---
------0---------------0-0-0-------
---------------0-------0-0--0-0---
------0-------0-0-0-0--------00--0
-----0-0-------0-0-0-0-------0-00-

Generation = 2, Population = 189.
-------------0-------0-----0------
-----------------0---1-----------0
-0---------0---0---0---0-----0----
-1------0------0-------0-------0-0
---0--0------0----0-01-0----------
---0--1---0------0---0-----------0
-1--0--11---------0-0-0--0--------
-0------0---------1---------------
--0--01--0-0--0-----0-------------
---------------01---0-----0-------
0---0--0-01--0--0-----------------
-------------0---00-----01--0-0---
--0----00--10--------------0------
---------------0-------0--1-0---0-
-----0---00--0-----------1---0----
---------------0-------------00-0-
-------0---0---1--0--------1------
----0--------1---0---------0--0---
--00---------0--0---0-------------
--1---0--------0--1-------------0-
01---0------------1---------------
----1-----------0---0--0---------0
---1--0-----0---------------------
--0---------------0--0-0-0-----0-0
--100-----0--------------0---0----
0---0----------------0-0---------0
01--100---------0------1-----0-0--
--1----------------------*-0------
--000---0-----0-------0--0-0---0--
---------------0-----0-0-0-0------
------------------0-0---0--0-010-0
-------------0---0-0---0-0--------
----0-0-0-------0-0-0-0-----01011-

Generation = 3, Population = 449.
------------0-0--0--010---0-0----0
-0---------0-0-00-000*00---0-0--0-
010-----0-0-0-01000-01010---0-00--
0*00--00-0-0-0010-00010-0----00---
-10100100-0-0-00----1--10------0--
-101-0*-00-0-0--0-0-01-0-0------0-
0*0--0-*-00-------1--0-00-0------0
01--000-1--0--0--0*0--0--0--------
---001*0----00--0-0010----0-------
0-0-0000--00-0-1-0-010---0-0------
-0-0-00--1*0010-1-0-0---000-0-0---
0-0-0---0000-10--110---01*0----0--
-0-0--01100*1--0-00----000--0-0-0-
--0--0-00000000-0-----0-0--0---0-0
----0-0-01100-0--------00----1----
-----0-0-000-0010-0------0-10-1--0
----0-0-0-0-000*0--0------0*00--0-
--0--0-0---00*00----0-----0100-0--
-0-1--0-----010---00-0-----0--0-0-
0-*----0-----00--0*00----------0-0
1*-------------000*00--0--------00
00----0-----0--0-000-00-0-------0-
-----0-0---0-0--0-0-00---0-----0--
-0100-0---0-0----0-00----10--00---
00---0---0-0------0-----010-0-00--
1-1---0---0-----0---0--100-----00-
-*-1--10-------0-0---00*01-00---00
0-*--00-0-----0-0-----000.-100----
-0--10-0-0---0----------0---0-0-0-
--000---0-------0-0---0-01--000--0
-------------0-0---0---0-001-1-1--
----0-0-0---0-0-----0---0-000---00
---0-----0---0-0-0-0-----0-01---*0

Generation = 4, Population = 195.
-0-----------0-------*---0-0------
-1------0------------.------------
------0--0--------1-1--*-0-----1--
-.-----------1---0---*---0---1-0--
-*---1-1--------0----1-------0----
-*--01.-----0-----1---------------
-.-----.--10-00-0----10-1--0------
---------------0-1.--0----0------0
-0-1--.---001-------*----0--------
-0------0-----0-------0--1----0---
0---------.----0--1-1------0------
-----------1-------1--0--.-0--0---
------1*---.-00-0-----------------
---------------0--0--0----1--0--0-
--00--------------0----1-------0--
----0----------*-------0--0----0--
--00-----01----.-0---------.------
-----------1-.----00-----0--1-0-0-
----0--0------1-------0----1------
1-*-----0---------.----0---0-----1
*.----00----00----.---------------
--0-----------01------10--------1-
0-01----0-----0---1------1---0----
----1--------------1-----*-0-1-0--
--10--0-0-------0------------0----
*-----1-----------00-----1-0------
0.--1-*1--0-------0--11.---------1
--*------------0-------11.0--1---0
--0---0---0-0-----0-----------1---
--1------------------0-0-----1----
--00--0-------0-----------1--*1---
-----------0---0-0-0-0------------
--0---0---0---0-----------0--1-1*-

Generation = 5, Population = 471.
010-----0---0-0-----0.0-0---0-----
0*0---00-----0----0-0.-0---0---0--
-1---0-0--0--0--------0.-10--00*0-
-.---000-0--0-0------*00010-0*-10-
0.0--*--0---00-0--0-1*0--0--0100--
0.011-*0--0---0--0-0--0-0--0-0----
-.--00-.-0*10110--1-0-1--0--0----0
-1-0--------00--0-.--1--0-------0-
01--0-.-001-*000-0-0.-0-01----0--0
-100---0-00000----0--0-00*00-0-0--
--------0-.0----10-0-0---0010-----
0-----00--0-01000----0-0-.0100-0--
-----0*.1--.1110-000-00---00-00-0-
--00--00-----0---0100-00-0-00-0--0
-011-------------010-00*0----101--
---0-0---00---0.000---0100-1--110-
-011----01*----.0--0---0-00.0-000-
--000--0-0--0.0---110-0-0-0------0
0-01-00----0-1-0--00-0---00*--0-00
*-.00-00-0--000---.-----0-010---0-
..---011---011-0--.---0----0----00
-01---000---0--*0-0--0*100---0-0-0
---*---0-0---01--0----000*0001000-
0--0-00-------0-0---0---0.------0-
00*1-01--0-----0-00---------0100--
.01000--0-0-----00-1000-0---00---0
1*01--**00-0---0-01-0***0100-0--0*
00.00--0----0-0-0----0-**.-10---01
-0-0-0-0-0---0-0-0-0-0--0-0--0-0-0
-0--------0-0-0---0-0---0-0-0*0---
-0-100-0---0-0---0-0---0-0-10**1--
---0--------0-0-------0-------000-
-0-0-0-0-0---0---0-0-0---0-01--*.0

Generation = 6, Population = 448.
-*-0--0--0-0-0-0--001*-0-0---0-0--
-.-0--1---0--1---0--1.0--0---0-1--
-*--01--0--0-1----1-1-1.-------.-0
0*0-01--0--01-----0--.-------.-*-0
1.1--.11--00-1--0--0*.1-01--------
1.----*1--1--0100---0----00--1-0-0
0*00-1-.11*-1**1---0-1*01-0-------
-*--00--1---1100--*0--0010--0-00-0
1*-1-1.-11-0.--10-0-*0-01--0------
---1--0---111--110-011011.1-0-0-00
0000--00--.10-0--11---0------0----
-0-----100-1-*11-11-0-0-1.1-1-0---
0-0001..-00*--*-0-1-0--0---1---0--
----0--1-----1-001--1-1-0-1-1-----
01**0000-11--00--1--01-.-1---*---0
--0---0----0-0-*-1-0----1-0---*--0
01**-0--1-.00--.1-01--01---.---1--
0-1-1---01---*--00--10-0----1--001
1--*-1-0--0--*--00--0---01-.-0----
.0*-1-1---00--10--.0-000-0--1000-1
.*11-1-*-001--01--.---1--0-1-0----
01*-----1---10-*10-001.*1----101-1
00-*00010-0--1--0---0--1-.---*-1--
1-------------10-001-00-1.00---010
-1.*01-0----------1--00----0-*-1-0
.1----1-1------011-*11-11-0--1-0-1
-.1*1-*.110-------*0-...-----100-.
-1.11--------0---000--0...0-11---*
---11--1----0---0-0-010---1-011-01
0-1-0------0-----0------1110-.-0-0
01---1--0-----0-0-0-----0-1*1..---
--0------0-----0----------------1-
0--1------0-----0-------0--1*1-*.-

Generation = 7, Population = 516.
0.-100100-0--1--0-1-**0--10-01-10-
-.01--*00--00-000-0--.1-010-01-*00
-*-----010-10*0---*-*-*.-1---0-.01
-.------10-1*1--001--.--01---.0.-1
-.*10.---0--0*--10-1**--1----1----
-.-1--.------1*1-0-01--00--00-----
-.-10*-.--*--..*---10*.1--10000---
0.-01100-00--*11-1*--1---1----11--
**-*0**0-*11.0-*-01-.--1*---0--00-
----0-1-0-*--0--*--1**1*-*-0-0--11
11--00---1.*-110-*----------0-0-00
010-00----0-0.-*0-*-1-10-.-1-0----
-01-1***---*11.-1-*--00-0-0-0---0-
-0-0-0-*0--00*-11--0-0-0-0-0---0-0
1-*.1-1--**-0110--1--*-*0-0--*--01
-0-0001-00-1010*0*01-00--0-1--*-01
--..0--0*-*-10-**-1---1---0.0--*--
-0*--0---*-1-*001----101-0-1--0--*
*-0.--0---1-0*----0-10001-0.01--0-
*-.----0--1-0----0.-01110-0-*--1--
..-*0-1*011----*-0*-00*0-1--0-0---
--.01-00*---*-0.*1-11*.**--00*----
1-0*-------0-*-0101010-*0*000*0---
*0----0-0-0---*1011*0--0-.1-0-01--
-**.-*1-------0-00*0-1----01-.--0-
.*----*0*-0---01-*-.--0**---0-0--*
-**.--..--10-0-000.1-***0----*--0.
0-.**000000---0--1----1...1--*00-*
00--*00-0------0--101--00--0-**01*
10-01--00-0---0-0-0-0000----0.--01
-*0---00---0-0-0-0-0---010-.*..100
-----0----------0-0-------0--0---0
-0--0------0-----0-----0-00***-..-

*** Life<Cell> 30x31 ***

Generation = 0, Population = 59.
-------------------------------
-----------0--0-0--0--------0--
----------0----0---------------
--0--00---------0--------------
--------------0----------------
------0----0-------------------
-0-------0---------------------
-------0-----------------------
----------------0--------------
----------0-0--00--------------
-------------------------------
--0--------0-------------------
-------------------0----------0
------0------------------------
--0------------0----0--------0-
-------------------------------
---------0---------------------
--------------------------0----
--------------------0-------0--
-----------------0--0-----0----
---------------0----------00-0-
--------------------0----------
-----------0-----------0-------
--00---0-----------------------
-----0------------------0------
--0--------0------0------------
-------0--------------0--0----0
-------------------------0-----
-------------------------------
------------------0------------

Generation = 3, Population = 413.
--0--00----000--000--0----0---0
-0-00110---0-*--0-*00-0--0-0-0-
0-00-0--1--0-1-0-100-0----0-0-0
--0-01.---0--00-10110------0-0-
---000--0-1---0**000--------0--
---01--*---0-----0-------------
------0*---*---0-0-------------
-0-001*-0--11001-00------------
0----000-10-----1-10-----------
---0--01101--*---*------------0
0-0-0-0000-0----*---0--------0-
-000---001*-*1-----000------00-
00*0--0-000000010-00*10----01-1
00*-10-0--0-00-0--00000----000-
-000100---000-0-01-*00-0----00-
0-0-00---0-0-0-0-000--0--0--000
-0-0----0-0-0-0-00--0---0--0-10
--0----0-0-0----0--0-000---0*00
--------0-0---010-1--010--0--*1
---------0-0-00*0---*-1010*--00
--00---0--0---000*0--0011*-*0-0
-011000-00-0---00-1-10---0*0---
00-0--0001000---00--0--0*-11--0
1-*1----01-*00-0-0-----00--0-00
-00*0--0--0*00--0-0---0---10-0-
--1*100--1000-00-0-010--0*-00--
0--00--00100-0--0--0100*010-1--
-0-0---0-00-0-------0--10101---
--0---0-0--0----0-0-00--0*00-0-
-------0-------0-----00-010---0

*** Life<Cell> 33x33 ***

Generation = 0, Population = 59.
---------------------------------
---------------------------------
---------------------------------
--------0------------------------
---0------------0----------------
--------0------------------------
---------------------------------
---------------------------------
--0------------------------------
-----------------0-0-------------
---------------------------------
-----0-------------0--0----------
-0-------------------------------
--------------0------------------
--------------------------0------
---------------0----0------------
----0--------0-------------------
-------------0----0--------------
---------------------0-----------
--0---------------0--------------
----------------------0-0--0-----
--0---0-0--------0---0-----------
-------0-----0--------0----------
--0----0-----0--0--------0----0--
--------------------------0------
---------000---------------------
-----0----0-----------0--0-------
----0-----------------------0----
------0-----0-------------------0
--------------0------------------
---------0-----------------------
-------------0-------------------
-----0------------0--0---------0-

Generation = 2, Population = 197.
---------------------------------
--------0------------------------
---0------------0----------------
------0-0-0----------------------
-0---0--------0---0--------------
------0-0-0----------------------
--00------------0----------------
--------0--------0-0-------------
0---0----------------------------
-----0---------0-0---00----------
-00------------------------------
---0---0------0----011--0--------
---0----------------------0------
-----0------0--10--00-0----------
-0--0--------0----------0---0----
--------------1--0----0----------
--0---0----0---1-----0----0------
--0--------0----0-0--------------
----0--------1-----0--100--0-----
0-0-0-0-0----0--010-01-----------
-------0-----0------00--011--0---
0-----010-0--1-01-1----0-0----0--
-----0---0-0---0----0-0---00-----
0-0-001-1-0---11-10--0-0---00---0
-----0-1--1--1----------00--0----
--0-0---1*-*1---0--------1--0-0--
---0--100-----------0--11-10----0
--0---1--010--0-----------0---0--
----11--00----1-------0--0----0-0
----0-------11--0-----------0----
-----000---00-----0--0---------00
-----------0--10-----------------
---0-0-0-0------0-0110-0-----0-0-

Generation = 4, Population = 201.
---0------------0----------------
--------0------------------------
---------------------------------
----0-------0--------------------
--1----0----0-------0------------
----0-------0----0-0-------------
---------------------------------
-----0--0----------0--0----------
01-1--0---------0----------------
--------0----010-----*-1---------
--------------------------0------
-1-------0--------1-1.-1--1------
-01-11-------0-------------------
----------0--0-.-1-*-------------
---------------------00-------0--
--1--0-----1----1-1---0-1--------
01------00-------1----0-0--1-----
--*---1-00-----------11----------
-------0-----.---1----.--11------
0-0---01-----011*---0-0--1----0--
----1--------0----0-0--0-..-1--0-
0-0-0-*.-1-01.--*01--1---*-------
---0-*---000-----10--10--0*------
0-00*-.--1-00-*--.*-00----0-01--0
------1---.-0-----------*--0--1-1
--0--0-11.-.*0-1-1---0---.-------
-0----10-----01---0--11..-1--0---
0-0---*01-------0-------10----*-0
--1--.--*-0---.-1-0--1----0-1-*0-
---------1-0-*----1--------------
-----*----1--0----0--01--0-----*-
----0----1---1.--0----------0----
-0----0-----0-1--0----0--0-0---01

Generation = 6, Population = 432.
-0-0-0--------0-0-0--------------
----0-0---0-0--------------------
--00---0----1---0---0------------
--1-0-0-0-0-*-0--0-0-------------
0---00---00---0---0---0----------
--1-010-0-0-*-00-0---00----------
0011--00----1---0---0------------
---11-010-0-0000---01--10--------
*.0110--0-----1---0-------0------
-1---01-01001*-*000-1.1--01------
0-10000------1--0----1--0---0----
-.-1---01-10--000111-.-111.-0----
1-*-..10---0---0------0---1---0--
-11--1--01--1--.*1-.*1100-0------
0-1-01--00---1---1-11-01---00---0
1-111-101-1---1-1111-0--.-0------
*.*0--1---1*---1-1-000--*----00--
--*--1--0-1---00--00-.11-1----0--
10--10--0---0.11-11011*0--.----0-
0-0-*1---0----11*-*-*-001.-01---0
--01.10--10----10---*----.*--10--
---1*1.*-.1-..--*-.-0*0--.-0100-0
-0-*-*011*-*---001*-0*-110.1--001
00--.-.1*.*-0-.*-..0*-0010-1**-1*
-0-111-11-*-01--------0-.-0-0-1-*
0----0--..-..---010-1*---*1-111--
--1000----1-0-.01-01-1*..01-----1
-----1.---*10-*1-1---01-*-*01-*--
11.-1.10*---01.-.-*11--010---0.-0
0-1-1-0-0---1.10-1--0---01--1---0
-000-*11--10-0-0-0*1-*.-101-101.*
--0---10-1-1-..1--00------0---0--
-0-0110-0----1111**11*-110----1-*

*** Life<Cell> 33x33 ***

Generation = 0, Population = 58.
---------------------------------
------0--------------------------
------------------------------0--
-----0---0----------0-----------0
---------------0-----------0--0--
--0------------------------------
---------------------------------
----------------------------00---
----------------------------0----
--------0------------------------
--------------------0----0-------
--------------------0------------
----0----------------------------
---------------------------------
--0------------------------------
---0------0----------------------
---------------------------------
-----------0--0-----------0---00-
-0-------------------------------
--------------------------0------
------0-------------------0---0--
-----------0------------------0--
-----------------------------0---
--------------------------------0
-----0--------0------0-0---------
-----------------0--0------------
-------0-------------------------
-0--0---0-----0-------0---0------
---------------------0-----------
--0--0-------0------0------------
----------------------------0----
------------0----0---------------
------------0-------------0------

Generation = 1, Population = 194.
------0--------------------------
-----0-0----------------------0--
-----00--0----------0--------0-00
----0-0-0-0----0---0-0-----0---0-
--0--0---0----0-0---0-----0-00-00
-0-0-----------0-----------0--0--
--0-------------------------00---
---------------------------0-10--
--------0------------------01----
-------0-0----------0----0--0----
--------0----------010--0-0------
----0--------------010---0-------
---0-0--------------0------------
--0-0----------------------------
-0--------0----------------------
----0----0-0---------------------
---0------00--0-----------0---00-
-0--------0-00-0---------0-0-0110
0-0--------0--0---------------00-
-0----0------------------010--0--
-----0-0---0-------------010-010-
------0---0-0-------------0---10-
-----------0----------------0---0
-----0--------0------0-0-----0-0-
----0-0------0-0-0------0-------0
-----0-0------0-0-00---0---------
-0--0-0-------0--0--0-0---0------
0-00-0---0---0-0-------0-0-0-----
-00-00--0----00-----------0------
-0-00-0-----0-0----0--------0----
--0--0------00---0--0------0-0---
-----------010--0-0-------0-0----
-----------010---0-------0-0-----

Generation = 2, Population = 184.
------------------------------0--
----01--00----------0-----------0
---------------0-----------00-0-1
--00--1----0------0---0-------0-0
-------------0---0-------0--110-1
0---00---0----------0-------00--0
---------------0-----------01-0--
--0-----0-----------------01--10-
--------------------0----00---0--
------0---0---------1-------10---
----0-------------0---00---00----
--------0---------0---0----------
------0-------------1----0-------
---0------0---------0------------
0--------------------------------
-0---0--0--10-0-----------0---00-
-00------------------------------
---0-----01-11--0-------0-0--1--1
---0--0-------------------0---1--
--------------0---------0-*-0--0-
-0--0---0---------------0----1--0
---------0---0------------1-0----
-----00-------0------0-0--00--00-
-----------0-----0--0-----------0
---0--------0---0--0-0-0-0---0---
-0--0---0-----10--11------0-----0
---------0----1--------0---------
---1-1----0-01--00--0-------0----
-------0-----------0---0----0----
01-1---00--01-10-00-------0------
------------1--------0--------0--
--0--0----0--100---00------------
----------0-*-0---------0-0------

Generation = 3, Population = 451.
----00--00----------0--------0-00
---01*00110----0---0-0-----00--01
--00000-00-0--0-0-0-0-0---011-1--
-01100-0--0-00-0---0-0-0-0-0-----
0-00000--0-00-0-0---0-0-0-00-*---
-0-0110-0-0--0-0-0-0-0---0--1-001
0-0-00--00----0-0---0--------01-0
-0-0---0-0-----0----0--------1*10
--0---0-0-0--------010--01--1-1--
----00-0-0-0------00*000-00--1---
---0-00-0-0------01010-10-01-----
----0-00-0-------010101--0-00----
---0-0-00-0-------00*00-0-0------
0-0-0-0--0-0-------010---0-------
---0-0--0-000-0-----0-----0---00-
-1--0-00-00*1--0---------0-0-0110
0-1--0--0000-00-0-------0----0000
-0-10-0-01*-**00-0-----0--100--1-
--0100-0-00-000-0--------0-00---0
-0-00-0-0----0-0-------01-.------
0-00-0-0-----00--------010--0-1--
-0--000---0-0--------0-000*0--100
----0110-0-0---0-0------00-1-011-
---0-00---0---0---0--0---000-00--
-00-----0----00----10-------0-0--
0-0--0-0----00-1-0*-00-----0-0-0-
-0-000------0-*-00000-0-0-0-0---0
--0---00----1*-0110--0-----010---
00---001--00-0000-----0-0-0010---
1*--0-0-1001--*1-11--0-0-0-00-0--
0000-0-00-0-*----000--0---0--0-0-
-0-00-0--0101*110-011---0-0---0--
--0--0---01-.01----00--0---0-----

Generation = 4, Population = 191.
---------------0-----------0-----
-----.1---1----------------------
--------------------------1-----1
-1---1---0---1--0-------0----00--
-----------1-------0---0--1-1*-01
0-------1------------------------
--------------------1----0----*--
-----0---1--------------00----.--
----0----------0--------1--0--*-0
--0-1-------0-------.------------
--0-------------0----1--1----0---
---0------0-----0-------0---10---
0-------1-----------.-------0----
--------0--1--0-----------0---00-
00----0-------------1----0-------
------11---.--0-----0-----0------
----0-0-------------------0---1--
-------0--.0..-1--0---0---*1---*1
-01--1--------------------0--0---
---1------0-----------0--0*0--0-0
--1--1----0---1------001------*-0
-------0---0--00-0--0-----.---*11
-0-----1-----------------1-------
-0--0---0-----1-------0-----0-1--
-1----0--00------00*-0---000--1--
--1--1-----0----0-.-11--0-----0--
---1-------0--.-------------10---
00--01--0-0--.---*----0---0---0-0
-----1------0-1--0---0-0-01------
*.----1-------.-0---0---0--------
-------1----.-----------0-1-----0
-1--1-------*.*-10---00---1------
--------0---.---0----00-----0-0--

Generation = 5, Population = 451.
------0---0---0-0---------0-0----
-----.-0-1-0---0----------00----1
-0---00--00--0--0-------00-1-010-
0-1-0-1-0-000-00-0-0-----0----1--
00---0--000-00--0-0-0-0--0--**01*
-0-----0-0-0-------00--0-00-10001
0----0--00---------0-0---10--0.0-
------0-0-0----0----0--0--01--.-0
--001----0--0-0-0------0*-0-10.--
-01-*0-----0-0-00---.0-----0-10-0
-01-0-----0-0--010--1-01*0---10--
0---0---00-0---010---0-010-0--0--
-0-0---0*000--0-0---.---0-001-00-
-0----00100-00-0----1------000110
110--01-0--0-------0*0--0-0---00-
01--00**0--.-0-0---010----10--1--
---0--10---0--00--0-0-0--0---0--0
-00-00--0-.-..0-00-0-0-0-0**01-**
01*-0-00--00---0--0--------00--0-
-00-0----010--0-------1-11*10-1-1
-0--0-00-01--0*--0---11*1010-1*0-
-00--0010---00-1--00--00-0.--0*--
010-0-1*---0---0-0--0-0-0-0-0--10
0-00-00---0--0-0-000---0--0---*0-
0*--0--0-11---0--1-*01---1-1-0-0-
----0----0-10--1--*-*-00--000-10-
00------0--10-.-00--000-0-00*10-0
110-1-00----1.0-1.0-------101----
-0---*--0-00---0-10---0-01-0--0-0
..----------1-.1---0----1-------0
00--0---0---.-0--0--00001-*0---0-
0-00-0-00--0...--10-1--000*00-0-0
-0--0--0-0--.-101---0--0--00---0-

Generation = 6, Population = 390.
-----0-------0-0-0-------010-0--0
-0---*1--*--00--0-------0----00--
-----1-----0---0---0---01-1*-1*1-
1-----*-1-1---11--0---0---0000-00
---------1---1---0--1---0--0*.-**
010---0---0--0--0--------1----1--
----0------0---0--01--0-0-1--1.10
0-000---1--00---------01--1*--*--
------0------0--10--100-*-1-*-*--
0-*0.10--0----0-1---.----0--1*---
--------0-----01--10--1*.-0-0-100
-00-10-----1------1---1---01-----
-1------.-1-----1---.0--101--01--
---0---1-1--110-----*-----0-1---1
--10--*-----------0-.-00--100-1--
----11..-0-.1-010-------0--10-*-0
0---00--0-0-0-------1---010--1--1
---1-100-1*-..1-11--0-0---..1--**
1-.--111----0-0------0000-011--10
-1---0--0---0-1--00---*0-*.--0*--
0-1011--0-----.-0--00*-.*-*-0-.1-
-1-001--1-0-1-0*0011--1--1.0--.11
-*10--*.------0--100--1--11---1-1
---1-1-0--1-0-11-1--00----1-0-.1-
-*--1-------0--00*-.1*--0--*0---0
---011-0-10--0---0*1.--1---------
------0---0-10.--100---0--1-.--0-
--1--1110-00**-0*.1000-----------
-1---*----110--10*---0---*11-0--1
**--00----0--0**0----0----0---0-1
-1------10-0.0--01-----1*0.-----0
1-11------1-..*1--1----11-.-1----
------010-10.0*-*-001001---------

*** Life<Cell> 31x34 ***

Generation = 0, Population = 56.
----------------------------------
-------------0-----------------0--
----0-----------------------------
------------------0---------00----
-------------------------------0--
----------------------0-----------
--------------------0---0------0--
-----0-0--------------------0----0
----------------------------------
----------0-----------------------
-----------0----------------------
-0---0--0----------0--------------
--0--------0------0------0--------
-------0-0------------------------
----------0-----------------------
------------0---------------------
--------------------------0-------
--0-------------------------------
--0--00---------------------------
-0-----------------------0--------
--------------------------00------
-------------0--------------------
----------------0-----0---------0-
----0----------0-----0------------
-------0----------0---------------
------0--------------------------0
--------------0-------------------
-----------------0----------------
----------------0----00-----------
--------0-------------------------
------------------------0---------

Generation = 3, Population = 371.
---0-0-----0---0--0---------0----0
--0-0-0---0-0-0-00-0-------0-0-00-
-0-0-0-0---0-0-00-0-0-0---000---00
--0-0-0-----0-00-0-01--0001*1--0-0
---0---0-----0--0-00-00010000*0--1
--------0--------01-*0-0*00-0-0-0-
---0-----00------0100-0-00100101--
--0------11-------0-00-00010--1*-1
-0-0-0---0-----------000-00-0--10-
0-----0-00-0------------00-0-0-00-
---0--0001--0-0------0--0-0-0----0
0-0-00-00-------------00-0-0------
---0-000-*--0-00------0-0-0-0-----
----0-011-0*----0------0-000------
--10---010---00--0------0110------
-0-0-0--01--00-0--0-----000-0-----
0-*0-11---100-0--------0---0-0----
-*----000-00-0------------000-----
1--*--1*10--00---------0-0010-----
00--00000---0-0-0--------00*-0--0-
--1--110---0-0-0-0-----01-1-*100-0
0--0--00--0-0-0-0-------01-0000-0-
-00-0-0-0--0-0-0-0-------01100-0-0
-0-0-0-0-0------0---0-----00--0---
--0-0-0---0--0-------0-----------0
-----0------0--------10-------0-0-
--------0--0-0------0-10-------0--
-----0-0-0--0-0-0-01-000--------0-
--------0-0----0--11*11-0--------0
-----0-0-0-0-------000-00-0-------
------0---0----0----0-00---0------

Generation = 6, Population = 356.
0-0-0-0-0-----------0---0----0---1
-----0--------1----01-0-----1--10-
0-0-0-0---0-------0-------01-0-*--
---0-0-0--0-0---000-*--01.***----0
0---0---0--0----0---0---*1-10*---.
---0---0-1--1-101-.-.000.---10---0
------0----*-10---1-1---.--*-*0---
-0-0-0-1*.10--0-111-00--.-1----.--
0------1--1*-0-0----0--0----10-.--
---0--.--1--0--00-101--1--------00
0-0--0011--1000*-0---11--1-----0-1
---1-----*0---0--0---10--01---01-0
0---1-*-0*1100*110-0--.00--10-----
11-*----1-..-0--0--0---0-0--0----0
--.01-1----**0111-0--0---*-0-00---
001--.1--110--1--10--0-0-*-1------
11.--**----1-10-------01-0-.-1----
0*1--1-.0*--1---1--0-----1---0----
.-*.1-..-.----0---0-0--100-1--01--
0*-1..01--0---1------------*---1-0
01----------1-0---0-01*.-1*-*1..11
----00*0----1----------------0-1-0
1-.-----1-000---0---01-00-.11-01--
*.01----0------------1-------0-0-0
-10---0--00--0----011-10-1*--1----
-1----0---*-10-----0-------1-0-0-0
---0---01--1-----00--1.--100--0---
----0-----100--0-1-----------0-0-0
-----0---0-----1--*1.11*.-*1----0-
--0-----0----110---------------0-0
-------0---------1-1*0*1-0--0-0---
