*** Life<Cell> 15x15 ***

Generation = 0, Population = 50.
0-----0---0---0
-0---000-0--0--
--0--000-----0-
-----0-----0---
-------0-------
0---0----------
--------0-----0
-0-0------00---
-0-------00---0
00-0----------0
---------------
-0-0-0--0------
0--0-----00-0--
-00------------
----0--0----000

Generation = 10, Population = 95.
.*.--.*-.1*--*.
-*10**1-**.0.1*
--..1*.-..-*1.*
*1....1*-0-..11
...1*.*-***.1*.
.-.....***-*---
0.......1.--**.
..0..........*.
..-.1.*1-.-.-.*
...11-*0*..10*.
.1-*.--.*00-.1*
..1*1***0..1***
*.-.-.0*.*....1
*..***1.....1-0
****..*..1*....

Generation = 20, Population = 79.
..**..*****.**.
.***...-..*.**.
.*...*.-*.*....
.*..****11*....
.......-.......
.-***.....*....
-..**....*-*.**
....*...*..*...
..**....*..*...
..**.-*....*1..
.-**.**.*-.....
...*1**.*..*...
.*-..*..**...**
*......**.**-**
.**..*.*...**..

*** Life<Cell> 15x15 ***

Generation = 0, Population = 50.
---0----0----0-
-----0--0------
---0--0---00-00
---0--0--0----0
0------------00
--0-----------0
-----0-00------
-----0-----0---
--------0-0----
-00-0--0----0--
---------0-----
----0-0---0----
-0---------0--0
-----00---0--0-
-0-00--00----00

Generation = 10, Population = 101.
.-1..-.1***-...
----.-1..-.1*-.
*-***.....-.-*-
-11.*1..11-.*0-
.-.-****.-*.*..
..-.*.*-..***0*
.-0-1..*...-.-.
1*..*.01*..--*-
*..-.*-**.*..-.
*....1.0...**.*
**1*.01..*1*0-*
...***.*-*.**1-
1*.***1-*0*-.--
.1-*-..1****.*0
-********-.-*-.

Generation = 20, Population = 90.
.******....-...
*-.**.*.....**.
**.........*-.-
*.*......*...-1
*......**......
*.0**...*.*..**
........*....*.
-*...**.*..1..*
*.*.***.*....-.
*.*.**..*.....*
*....**.**.**.*
.*....*.*....*.
*.**.**.*****.*
*.-.*.********.
....****...***.

*** Life<Cell> 15x15 ***

Generation = 0, Population = 50.
-0--0-0----0---
0-------0-0----
--00-0--------0
-----------0---
-0-0--0----0---
--00------0----
------00--0-0-0
------------0--
-0---------0---
---0-----00----
---0---0------0
-----0----00---
--0--0--0-----0
---0-0-0----0-0
00-00-------0--

Generation = 10, Population = 98.
11*1*.**-*..*..
.1**0*.-*-*.000
.....*.----...-
.-..1***---1.-.
0-.*...--*.*.**
***..*-1**-..1-
01..-...*.***.-
1.-0*---.1*-*-.
11-..--*...*...
1***--*........
.-.-*.**..1..0.
1*-..*1..**1**.
-*1-0*.-00**--*
-*-**..-*-**.*1
**-0.--***--..1

Generation = 20, Population = 49.
...........***.
.........-*...*
.........*1***.
.....*..-1*....
-....**.1......
.......*..-...-
-..**......**.-
..*..-.-*..**-.
..-..-.........
-...-..***.....
......*****.*..
..-**....*.*...
.*.-**.--.**...
.*.**.*-....*..
......-*..-....

*** Life<Cell> 15x15 ***

Generation = 0, Population = 50.
----0----00---0
0-------------0
-0--00---------
--000------0-0-
-------0-------
------0-0------
0--0-----0-----
---0--0----00-0
-----0-000-----
-0---0-------0-
0-0----00------
-0-----0-------
---0-----00----
--------0-0--0-
-0--0-0---0--00

Generation = 10, Population = 95.
-*.-**1.1.**1--
--*.1----*--0..
1-*--*1-*-.-00.
1-.*11**.*1*0.1
.--.1--.11-.*.1
...0*-*-*..-***
*.-*1*-**-..1**
---.-...1...**0
.-.01...-...*.*
*-0.1*...-.11..
*....*.-..-*.--
-.1*0.**-*-1...
0.-0*--.-*.*-**
*..-.*1-..*...*
.-*.*1***-.*.*.

Generation = 20, Population = 71.
........-**.*-.
..**.11...-.**.
.*****...**.**.
...*.*.........
.*-*.....-.....
.****..***.....
.**..*0.**.....
..****.........
*.*.1.......***
..*.-......*.**
*.*...***.**..1
1*..1.**-.*.*..
...*.1-....**..
....*..........
.-.**..........

*** Life<Cell> 15x15 ***

Generation = 0, Population = 50.
00--0---0---0--
--0------------
-0-0-0---00--0-
---00------0---
--0------0-0-0-
---00------0--0
0--------00----
---0---0-------
--0------00----
----------0--00
----0-0--------
--0---------00-
-----0---00--0-
-0------0--0---
--0-----00--0--

Generation = 10, Population = 97.
.1****-*--..*-.
.-*..0.*11*.-.*
.11..100-*.1.-*
*.-..-1-.--**..
-.*.*.*.*1.1111
*-11.*-**1.....
*-**-1***..*-.*
*0*.***-..-1-.1
1.*.-1...**1-1.
-....-.-.0*.*..
-.0-.--1--10.-.
*.*1.---.1.-*.*
*11-*1.1...1...
*-.-.0....-..-*
-.*-*.-.*****1.

Generation = 20, Population = 77.
...*...........
.-**.1..-*..-..
****.*.*.**..-.
*..**-**.***...
-*..**.*.......
.*...****-.....
.***..***...-**
****......-1..*
*.*.*.......0**
..*.**.....*..*
*...*1-......-.
.*........*-.*.
..*****-..**.**
.-*..........**
-..-......****.

*** Life<Cell> 15x15 ***

Generation = 0, Population = 50.
----0--0----0--
00-----0-----0-
00--00-0--0----
---0-00-00----0
-----------0-0-
---0-----0----0
-0-0---0-0-----
-0--0----0-----
-----0---00--0-
-----00-0------
----0----------
--0-0----00----
----00----0----
-------0-------
---0--0------0-

Generation = 10, Population = 93.
-**.-.*..1.0**.
*..00.*.**-.*-.
-.**...**..1**.
*.*1.-*-*...-..
.-1.0-*-*-..--0
--.*.-..**--*--
..-.-.1---.*0*-
.*1..*1*.0..*.*
-.11.1--00**..*
.-.-.***-1-1--*
*.1-.-**.*---*1
1*-0..01*.-.-11
.*-**.-....-11.
01-.-.*.--.--0*
-..**.-.*00*1..

Generation = 20, Population = 73.
..****......*.*
.*..*.**..-.*..
-.**.******...*
*.*..-...*****.
***.-.**.*...*.
......**.*..*-*
.***..*.--..*.1
.*.**.**.......
........-......
.-...*.*.*...-.
...-.-...*.....
........****1.*
.*-...*.**..**.
.**.-.*.-0...-.
-....***.--....

*** Life<Cell> 15x15 ***

Generation = 0, Population = 50.
00-0-----0-0--0
---------------
-0-------------
0-0-----0------
--00-00-----0--
--00------0--00
--0---0-----0--
--0---0----00--
--0--00--0-----
000-------0----
0-------0------
-----00------0-
0--000--------0
--------0-0-0-0
--0------------

Generation = 10, Population = 95.
-.0-****1..1.**
.1-*--**----0.*
*0.00.*.-1***-*
.**-*-1*-0*.**-
**.*0**-.*1-.1.
0*.*..-.1.10.-.
-..---*.**1*.1.
.--.-*1.0*..-**
-.*.-*.1.*--...
*1-........*.-*
*.*-.-*01..-.-*
1..1.-..-.*..1.
*-..---...11.**
1.0-.*1-.-1..-*
.-..*.*1*0----.

Generation = 20, Population = 69.
...............
...***...*.....
.***....**..***
.*....**-.....*
......*-*..*.**
-....*1.***.*..
-*.*-..***.....
....0.1**....*.
-...-..*.*..*.*
***...*..*.*..*
*......*.*.**-.
***-.0.....***.
.**........***.
.......*.-..*-.
.......-**-..-.

*** Life<Cell> 15x15 ***

Generation = 0, Population = 50.
---00-0-----00-
0--00-----00---
--0------0-0-0-
-0---0-----00-0
--0----0-0--0--
----0---0-0----
------00-------
0-----0-0--0---
---------------
-0-0--0------00
-0-------------
0---0--------0-
--0--000---0---
--------0-0----
---0-------0---

Generation = 10, Population = 93.
01**0*--0..-.*.
1-*.-*..---...-
.1*.**.--*1....
-.*10-*.-*.-.-.
..--..***-*1.**
****-*..-1*..-*
.---**-*.-..-*-
..-1*1.0*..1-.*
-.0-1.1.-..-..-
0**....*0...***
1.*.1-.*-1*.0**
.*..-..-*-*.1..
..*.-*....1.1*-
**-1**.-.***.**
...1*1-.--*0--0

Generation = 20, Population = 68.
.**.-...-.*0...
....-...*.*.**1
........0.....*
-***.*.*.*****.
..****.......*.
......**.****..
.....*...0..*.-
.....-*..**..*.
**-.**..-..*.*0
........-.....*
.....*.*-.....*
.***.*......**.
.***.*...**.**.
.......1...*...
......-.-*.0...

*** Life<Cell> 15x15 ***

Generation = 0, Population = 50.
------0---0-0--
-00-------0--0-
--0----0-----0-
--0-0---0-0----
----0--0-------
0--0-0----0-00-
-----0---0----0
-------0-------
----0---0---0--
--------0-0----
-------0---0---
0---------0----
00----0-0-000-0
-----0------0--
00---------000-

Generation = 10, Population = 75.
.-..-0.**-.--..
.-0.-0..1-..**-
.--.**-.1.-.1.*
-.....1.1--0.0*
1--**-*-.0....*
*.1.-....*...--
0.1-1*1.*.-..-.
-1...-1.-.1**10
-1-**....*1.--.
.-00*--....0.*.
.*-..*---*.-1*.
.**0.**.--.--1*
-**1....-----.*
.1..0--.1-00*--
..*-*.*.......-

Generation = 20, Population = 70.
.0...-..**.....
....-..**.*.*..
.1**..1**.***..
..**....*...*..
.....1*1...***.
...****.*.....*
.**..*...*.**.*
..*..*.*...*..*
*.*...**..1...*
*.1....*..*-..*
.*-.**-.-.*....
...0.....-..**.
-..-.*..**..*..
.....0...-**...
.......*......-

*** Life<Cell> 15x15 ***

Generation = 0, Population = 50.
----0-0--------
0-0---0------0-
-------00-0---0
--------0---0--
0--------00----
---------0-0-00
-----------0-0-
0------0------0
--0-----00-----
-0---0--00-----
-0-0-----------
-----0--0------
-0------0------
000---0---00--0
000-0--0------0

Generation = 10, Population = 84.
0..--*1*-.----.
**.0*-.--0.....
.--*.--*-.0*-.-
.-*-.-*.-1.1-*-
-1-*1-*1-*.**..
.*1-1-.-.*1..0-
..-..1*-.*1*1*-
......1--..*1.0
*.-...0-...0-*.
..-*-0...0.-*0-
--***1*-*.*.--*
.-1*.*-*..11..*
..1-0-....1****
...*-.........*
-*1-*.01..-*01.

Generation = 20, Population = 53.
-..-0....*..*..
...-***.-.**...
.....*..*****.*
..........**..*
**-**.......*.*
...-*-.......1.
.......-.....*.
............**.
..-*.........*.
.....**....*...
.....**.*.....*
**....-***.....
***-.........*.
..*........*...
.*.-.......***.

*** Life<Cell> 15x15 ***

Generation = 0, Population = 50.
---000---------
----------0----
----0-------0--
--0------00----
0--0-----00----
0---00---------
---0--0-0---0-0
---0-----0-----
00----000---00-
------00---0-00
---0-0----0----
--------0---0-0
----0-----0----
--------0-0----
----0-----000-0

Generation = 10, Population = 108.
-**......1.-*.1
*101.-.1..*1.-1
*..*...01..0-1-
-0..1.0*.*1...-
*..0**1.----1*.
*..1**..*0.1*.*
-.1...-..100*-*
..*.**1.-**01.*
**.*..0**-*1*1.
.1-*11.--.0*-.*
*1***1.**...1-*
**0-**-.0**.0**
1..-1.0.1-..-.*
----.-..*-...-*
0--..1.1.**..11

Generation = 20, Population = 66.
-.*.......**...
.*.*.-.....-*..
.*.*...-.*..-.*
...**.-.......*
...**....**1**.
.........0**...
-.**.......1**.
...*..1.-**1**.
.....****......
..-.....*.0....
.**.....**.*.*.
..*....*.*.*-**
....*.-*-...-..
-.1.*...**..*.*
.-**...-..*.**.

*** Life<Cell> 15x15 ***

Generation = 0, Population = 50.
-0---00--------
-----0---0--0--
---0---0--00---
--0---------0--
0----0-----0--0
--0--0---------
---0-----------
--0---------0-0
-00------0--0-0
------0--00----
----------00---
-----00-0--00--
-00--------0---
00---00----0---
-0-0-0-0-----0-

Generation = 10, Population = 98.
1.-***.0--**.0.
01..-..-.---...
1.01..*1*-1**-*
**...1.10.-0-.*
*.*1-..*10*.*..
*1-.**00*1*-.1.
-*.*-.-.0.-...-
01.00**0..*1..*
*.*0-...-*...1-
.*1--.*..*0*..*
1..---1--.*.-0*
0.*..*..*.*.**1
.*..**..-.*..**
...1-*.-**...-*
....0.**-1..-..

Generation = 20, Population = 76.
.***....*......
.***...0*.1*.*.
1..*......*..1*
.*........*....
........-.....*
.*****-....*.*.
*.**0*-...-...1
*-...*........*
*.**1*.**.....*
*...0*.***-...*
.**.....*...0-.
.**.........*.*
.....*..-...*.*
..****.1*.*..*.
...*-*..**.*-*.

*** Life<Cell> 15x15 ***

Generation = 0, Population = 50.
------------000
0-0----------00
-----000---0--0
00-0------0--0-
---000---------
--0--0---------
0----0--------0
----0-0--------
-0-----0-0-00--
------0-------0
----00-----00--
--------000----
-----0---0-----
0----00-0------
-0-0-------0---

Generation = 10, Population = 122.
1-1*0***.**-..-
*1....*.1*-*1-*
.*-11.**.**-**-
*.-..*-****-*..
*1*--*.*-*1.-1*
*.*-0*.*-101*-*
*.*.1.-*.-1-0..
--.*.**10**-.1*
-.-...0*-011*..
*--*-**1..*.0**
---...*0*.1**.*
0*-*1*.*1-*-**.
-10-..**-*-**1.
..***.****.-.*1
1--**-..0*-.-0.

Generation = 20, Population = 78.
.***-......-.**
.*.*......-*..*
.*0......*.0**.
..***...***.**.
..*1-*.*....*..
..*.**.......*.
.*...*...-*..*.
.*.*..**0***...
***..*-*.-**.**
*1...*......***
**0...*........
**..**...*.*...
1.-.***.**.....
......*........
-1....*......-.

*** Life<Cell> 15x15 ***

Generation = 0, Population = 50.
-0-0----------0
-----0----0---0
-----0--0------
----------0-0--
----0----00-0--
000--------000-
---------0-0-0-
0-0--------0-0-
---------------
---0-----------
----------00-0-
-0--------0-0--
-000--0--0-0-00
------0-0-----0
----0---0-00--0

Generation = 10, Population = 104.
-1**--1**-**1**
.11.-**-*.1---.
1..*.-*10.*....
..0--*.0-..1-.1
*-..--..1**-1*-
*.**.*-*..*.***
-0-**-1.**...**
**..--11-*-1.1*
-...*-1.1..*.*-
.*.1*--.*--1..-
1.-.*0*.1---*--
...-0..1*..*-11
.1*...***1-****
*..**-.*.010--.
**..*.*.-.**-..

Generation = 20, Population = 55.
..*..-.........
.....*.-.....-.
.*...***1...**.
..-...*..*..**.
*-.***.......**
**...*...*....*
-*........*.*.*
...*.*..*.*...*
-.......*.....*
.....*.........
.....*........*
.....*........*
**...*.**.-..*.
**...***.-.10-.
.....**.-......

*** Life<Cell> 15x15 ***

Generation = 0, Population = 50.
-0-------------
--0------------
--0-0----------
-----0000-----0
0--0------0---0
-0----000------
-----0--------0
----00------0--
-0---0-------00
--0-0-0--0-----
000------0--0--
0--0--------00-
-0-0--------0--
-----00--00--0-
-0---0-0-------

Generation = 10, Population = 81.
1*-1.....1*-11.
*..-.1-...*-*-1
.-..*0.1.**-..*
....-.*-...**1*
-1.1*1*.***1.1.
1...*.*1*.1*.-.
**-00.1*--*11--
*.1..-1-..-..1-
*.*-.**...*-1.*
.-.-.*...**--.1
--*0.1...*.-..-
..*-*..*-*-.-..
..-.-..--......
.---..1---.-.-.
1---011-0*-*--0

Generation = 20, Population = 47.
.*.......***...
.*...*.........
.*...*.-*.**...
.......-*......
1*...**....*...
...............
..*.1....**..1.
.**..--1..***-.
..*........*-*.
.-.-.........*.
........*.*.*..
.......*..*....
....**.1*......
....**....**.0.
..-...--..*....

*** Life<Cell> 15x15 ***

Generation = 0, Population = 50.
---------------
0---------00---
---0---00------
---0--0-00-----
---0---00--0---
-00--0---0-0-0-
0---------0----
-0--00--0---0--
00----000------
-------0-----00
--0-0------0---
----0--0-------
---0--0---0----
--0---0---00---
--00-0---------

Generation = 10, Population = 96.
.1--1.-*-**111-
*.1.**.......*.
.--*-1..*...-.*
**..*1....*.-.*
..1.*-*.1-..*.0
*..-1.*-.-..*--
-.1.0**-*0....1
.*--***-*.-.-.*
*-0--*..*.-..10
-*01***.1...*.*
*-*0.1...-1**.1
1.-***1.11**.*-
.1*--*.---.*--1
.-.1--...-1***1
-...10.*-*1.1.-

Generation = 20, Population = 72.
.*-...-....--..
*.**...........
*..**..**...1..
*...*-..*.*.-..
*.**.1..*-..**.
..**.....******
.*..-.....*.*..
..-1.....**.1..
.1*--...***.*.*
***.....**..***
*...*-***0-....
........*1.....
...*-..*.-..0-.
...**-...*1...-
1.....**.**...1

*** Life<Cell> 15x15 ***

Generation = 0, Population = 50.
--0--0-0----0--
0---------0----
--------0------
----0----------
---0-0-00-----0
---0---0000----
--00--0--------
-0-----0--0--0-
-0-----0------0
----0-0-------0
-----0-----00--
---------0-----
---0---00---0-0
0---00---0--0--
0-00--------00-

Generation = 10, Population = 83.
**-.**..*1*----
...-.-*-.-...*-
-.*01-.*0*1-*01
*.*..-1*.0*011-
-*...---....*-0
*..-.-.*.1...*.
11..**..*-.--**
1.1..*..*-*.*.1
.....*---....0.
1.**0*-*111..*.
*.----.**.-*...
.*.----..**-.1.
..-*....*-..*.*
*.-.....--.*0*-
.**...1.1-.*..0

Generation = 20, Population = 50.
..-....*.......
....*.........-
...1*.*.-....-.
...*.-.*.-..-..
-....1..*....-.
..*......*.....
...**.......-..
..**...*...*.*.
**.**.**-..*.**
***.-..*.-*..*.
***-1..*.*..*..
....*...****...
*...*..........
.*-............
.**...-.......-

*** Life<Cell> 15x15 ***

Generation = 0, Population = 50.
-00---0-----0--
------0----0--0
-------------0-
-00----0------0
-0------0-00-00
-------0---0-0-
00--0-----0----
-----------0---
-------0-------
--0-----------0
--0---00000-0-0
000-0-0-------0
-00----00------
------------0--
--------0---0--

Generation = 10, Population = 90.
....--.--0*--..
**..**.*-**....
.1.-01.-.*1-...
*0-.*1**0.00.*-
...-**.*.0----.
1.....**..-*.*.
..-1....*-..***
.*11.-1*-*-.-*0
.*.*1-.*..---1*
...----*-1*1.1*
...*-..-1.-**--
-..1.1.-.**.*0*
.-.*..1*--0*--.
..*1**...--*.-*
.111.0.***.-*1*

Generation = 20, Population = 83.
.******1..*.**.
**....**..*..*.
.......-***1.*.
....*****.01**.
.........-.*1..
-*.....***..*.*
*.**..*...*.*.*
..*.**.*0.*.*.*
.....*****..*.*
...........***.
......**...***.
-..-..**..*..0.
......**.*...-.
...**....-1..*.
...**......-*1.

*** Life<Cell> 15x15 ***

Generation = 0, Population = 50.
-------0------0
------0-0--0---
-----00-0------
--00----0------
---0--0---000--
0--------0--0--
---------0----0
----00----00---
---0---0----0--
-0--0-00----0-0
-0---0----0--0-
0---------0----
-----------0---
00-0-0---0-----
-------0-0-0--0

Generation = 10, Population = 112.
1..*.10--.--1**
-0*-.0*.*..*100
-.----1**0..**-
.*-0.*.*...*.-.
.--**0-**0.***1
-**...-.*10.**.
-1*-1-1*-***..-
--11*..-0*.-1**
-.1-0.-***.**.*
.-.*--*0*-.*..*
-*0--*..-0..*1*
-*...*-****.*-*
-*0.-*0*1.-**..
1**.**.--.*...*
0--.-*1-1.-1**0

Generation = 20, Population = 64.
******-.1.0-1..
*....-****..1-.
-...*.*...*...*
..........*.*.*
*.-**-**....*.*
1*....*...1..*.
........*..*...
..........*....
...-.*.*.*.....
.....1.........
0...1..........
....*...***....
1.0*.*0.***....
**.*.*.........
**..1....*1...-

*** Life<Cell> 15x15 ***

Generation = 0, Population = 50.
---0--0---00---
-0--------0----
00-------------
----00----0----
-----00------00
-----00-000----
0--00-----0----
-------0-00----
0--0-0-----0---
-0-0-------0---
-0--------0----
00--000-----0--
---------0---0-
--0-0-0---0----
0----------0---

Generation = 10, Population = 113.
.-*1**.*1..***-
-*1.1.01*-.-*--
.*.*0*-0---..**
1..*..*.....*-0
-.-**--.*1.*.**
-0..*.*1**...*1
1.1...***-.*-.*
*.-*-*..1.--*1.
-*11-.**1*1*.1.
..0..**--*1.11-
***.0.-0**.-**.
..***.-*-10.**-
.*1.**---*-00.*
0-*1..1.*.*0.-*
1*.-*.10-*.-1--

Generation = 20, Population = 69.
**.-.....**....
**..-......-..*
........1-...**
.......**....*-
..1..**.*......
-0...**.*.**...
.*........*..**
...***...*..*..
-..***..**.....
..-**....*.*...
....*..-***-..*
.*...*..**.****
....**..**.--*.
......*..*.-**.
...***....**.0.
